------------------------------------------------------------
Client connecting to 10.1.1.2, TCP port 5001
TCP window size: 23.5 KByte (default)
------------------------------------------------------------
[  3] local 10.1.1.1 port 32781 connected with 10.1.1.2 port 5001
[ ID] Interval       Transfer     Bandwidth
[  3]  0.0- 1.0 sec   512 KBytes  4.19 Mbits/sec
[  3]  1.0- 2.0 sec   640 KBytes  5.24 Mbits/sec
[  3]  2.0- 3.0 sec   896 KBytes  7.34 Mbits/sec
[  3]  3.0- 4.0 sec  1.12 MBytes  9.44 Mbits/sec
[  3]  4.0- 5.0 sec  1.38 MBytes  11.5 Mbits/sec
[  3]  5.0- 6.0 sec  1.12 MBytes  9.44 Mbits/sec
[  3]  6.0- 7.0 sec  1.12 MBytes  9.44 Mbits/sec
[  3]  7.0- 8.0 sec  1.38 MBytes  11.5 Mbits/sec
[  3]  8.0- 9.0 sec  1.12 MBytes  9.44 Mbits/sec
[  3]  9.0-10.0 sec  1.25 MBytes  10.5 Mbits/sec
[  3] 10.0-11.0 sec  1.12 MBytes  9.44 Mbits/sec
[  3] 11.0-12.0 sec  1.12 MBytes  9.44 Mbits/sec
[  3] 12.0-13.0 sec  1.25 MBytes  10.5 Mbits/sec
[  3] 13.0-14.0 sec  1.12 MBytes  9.44 Mbits/sec
[  3] 14.0-15.0 sec  1.38 MBytes  11.5 Mbits/sec
[  3] 15.0-16.0 sec  1.12 MBytes  9.44 Mbits/sec
[  3] 16.0-17.0 sec  1.12 MBytes  9.44 Mbits/sec
[  3] 17.0-18.0 sec  1.25 MBytes  10.5 Mbits/sec
[  3] 18.0-19.0 sec  1.12 MBytes  9.44 Mbits/sec
[  3] 19.0-20.0 sec  1.25 MBytes  10.5 Mbits/sec
[  3]  0.0-20.2 sec  22.5 MBytes  9.37 Mbits/sec
