20150307003636,10.1.1.1,36815,10.1.1.2,5001,3,0.0-1.0,393216,3145728
20150307003637,10.1.1.1,36815,10.1.1.2,5001,3,1.0-2.0,393216,3145728
20150307003638,10.1.1.1,36815,10.1.1.2,5001,3,2.0-3.0,524288,4194304
20150307003639,10.1.1.1,36815,10.1.1.2,5001,3,3.0-4.0,524288,4194304
20150307003640,10.1.1.1,36815,10.1.1.2,5001,3,4.0-5.0,655360,5242880
20150307003641,10.1.1.1,36815,10.1.1.2,5001,3,5.0-6.0,786432,6291456
20150307003642,10.1.1.1,36815,10.1.1.2,5001,3,6.0-7.0,786432,6291456
20150307003643,10.1.1.1,36815,10.1.1.2,5001,3,7.0-8.0,1048576,8388608
20150307003644,10.1.1.1,36815,10.1.1.2,5001,3,8.0-9.0,917504,7340032
20150307003645,10.1.1.1,36815,10.1.1.2,5001,3,9.0-10.0,1441792,11534336
20150307003646,10.1.1.1,36815,10.1.1.2,5001,3,10.0-11.0,1441792,11534336
20150307003647,10.1.1.1,36815,10.1.1.2,5001,3,11.0-12.0,1441792,11534336
20150307003648,10.1.1.1,36815,10.1.1.2,5001,3,12.0-13.0,1310720,10485760
20150307003649,10.1.1.1,36815,10.1.1.2,5001,3,13.0-14.0,1441792,11534336
20150307003650,10.1.1.1,36815,10.1.1.2,5001,3,14.0-15.0,1310720,10485760
20150307003651,10.1.1.1,36815,10.1.1.2,5001,3,15.0-16.0,1441792,11534336
20150307003652,10.1.1.1,36815,10.1.1.2,5001,3,16.0-17.0,1310720,10485760
20150307003653,10.1.1.1,36815,10.1.1.2,5001,3,17.0-18.0,1441792,11534336
20150307003654,10.1.1.1,36815,10.1.1.2,5001,3,18.0-19.0,1310720,10485760
20150307003654,10.1.1.1,36815,10.1.1.2,5001,3,19.0-20.0,1310720,10485760
20150307003655,10.1.1.1,36815,10.1.1.2,5001,3,20.0-21.0,1572864,12582912
20150307003657,10.1.1.1,36815,10.1.1.2,5001,3,21.0-22.0,1572864,12582912
20150307003658,10.1.1.1,36815,10.1.1.2,5001,3,22.0-23.0,1310720,10485760
20150307003659,10.1.1.1,36815,10.1.1.2,5001,3,23.0-24.0,1441792,11534336
20150307003700,10.1.1.1,36815,10.1.1.2,5001,3,24.0-25.0,1310720,10485760
20150307003701,10.1.1.1,36815,10.1.1.2,5001,3,25.0-26.0,1441792,11534336
20150307003702,10.1.1.1,36815,10.1.1.2,5001,3,26.0-27.0,1310720,10485760
20150307003703,10.1.1.1,36815,10.1.1.2,5001,3,27.0-28.0,1441792,11534336
20150307003704,10.1.1.1,36815,10.1.1.2,5001,3,28.0-29.0,1310720,10485760
20150307003705,10.1.1.1,36815,10.1.1.2,5001,3,29.0-30.0,1441792,11534336
20150307003706,10.1.1.1,36815,10.1.1.2,5001,3,30.0-31.0,1310720,10485760
20150307003706,10.1.1.1,36815,10.1.1.2,5001,3,31.0-32.0,1310720,10485760
20150307003708,10.1.1.1,36815,10.1.1.2,5001,3,32.0-33.0,1572864,12582912
20150307003709,10.1.1.1,36815,10.1.1.2,5001,3,33.0-34.0,1441792,11534336
20150307003710,10.1.1.1,36815,10.1.1.2,5001,3,34.0-35.0,1310720,10485760
20150307003711,10.1.1.1,36815,10.1.1.2,5001,3,35.0-36.0,1441792,11534336
20150307003712,10.1.1.1,36815,10.1.1.2,5001,3,36.0-37.0,1310720,10485760
20150307003713,10.1.1.1,36815,10.1.1.2,5001,3,37.0-38.0,1441792,11534336
20150307003714,10.1.1.1,36815,10.1.1.2,5001,3,38.0-39.0,1310720,10485760
20150307003715,10.1.1.1,36815,10.1.1.2,5001,3,39.0-40.0,1310720,10485760
20150307003716,10.1.1.1,36815,10.1.1.2,5001,3,40.0-41.0,1441792,11534336
20150307003716,10.1.1.1,36815,10.1.1.2,5001,3,41.0-42.0,1310720,10485760
20150307003718,10.1.1.1,36815,10.1.1.2,5001,3,42.0-43.0,1572864,12582912
20150307003719,10.1.1.1,36815,10.1.1.2,5001,3,43.0-44.0,1441792,11534336
20150307003720,10.1.1.1,36815,10.1.1.2,5001,3,44.0-45.0,1310720,10485760
20150307003721,10.1.1.1,36815,10.1.1.2,5001,3,45.0-46.0,1441792,11534336
20150307003722,10.1.1.1,36815,10.1.1.2,5001,3,46.0-47.0,1310720,10485760
20150307003723,10.1.1.1,36815,10.1.1.2,5001,3,47.0-48.0,1310720,10485760
20150307003724,10.1.1.1,36815,10.1.1.2,5001,3,48.0-49.0,1441792,11534336
20150307003725,10.1.1.1,36815,10.1.1.2,5001,3,49.0-50.0,1310720,10485760
20150307003726,10.1.1.1,36815,10.1.1.2,5001,3,50.0-51.0,1441792,11534336
20150307003726,10.1.1.1,36815,10.1.1.2,5001,3,51.0-52.0,1310720,10485760
20150307003728,10.1.1.1,36815,10.1.1.2,5001,3,52.0-53.0,1441792,11534336
20150307003729,10.1.1.1,36815,10.1.1.2,5001,3,53.0-54.0,1572864,12582912
20150307003730,10.1.1.1,36815,10.1.1.2,5001,3,54.0-55.0,1310720,10485760
20150307003731,10.1.1.1,36815,10.1.1.2,5001,3,55.0-56.0,1441792,11534336
20150307003732,10.1.1.1,36815,10.1.1.2,5001,3,56.0-57.0,1310720,10485760
20150307003733,10.1.1.1,36815,10.1.1.2,5001,3,57.0-58.0,1441792,11534336
20150307003734,10.1.1.1,36815,10.1.1.2,5001,3,58.0-59.0,1310720,10485760
20150307003735,10.1.1.1,36815,10.1.1.2,5001,3,59.0-60.0,1441792,11534336
20150307003735,10.1.1.1,36815,10.1.1.2,5001,3,0.0-60.2,77201408,10260523
