20150221191318,10.1.1.1,58049,10.1.1.2,5001,3,0.0-1.0,393216,3145728
20150221191318,10.1.1.1,58049,10.1.1.2,5001,3,1.0-2.0,262144,2097152
20150221191319,10.1.1.1,58049,10.1.1.2,5001,3,2.0-3.0,655360,5242880
20150221191320,10.1.1.1,58049,10.1.1.2,5001,3,3.0-4.0,655360,5242880
20150221191321,10.1.1.1,58049,10.1.1.2,5001,3,4.0-5.0,655360,5242880
20150221191322,10.1.1.1,58049,10.1.1.2,5001,3,5.0-6.0,917504,7340032
20150221191323,10.1.1.1,58049,10.1.1.2,5001,3,6.0-7.0,1048576,8388608
20150221191324,10.1.1.1,58049,10.1.1.2,5001,3,7.0-8.0,1048576,8388608
20150221191325,10.1.1.1,58049,10.1.1.2,5001,3,8.0-9.0,786432,6291456
20150221191326,10.1.1.1,58049,10.1.1.2,5001,3,9.0-10.0,1179648,9437184
20150221191327,10.1.1.1,58049,10.1.1.2,5001,3,10.0-11.0,917504,7340032
20150221191328,10.1.1.1,58049,10.1.1.2,5001,3,11.0-12.0,1441792,11534336
20150221191329,10.1.1.1,58049,10.1.1.2,5001,3,12.0-13.0,1441792,11534336
20150221191330,10.1.1.1,58049,10.1.1.2,5001,3,13.0-14.0,1310720,10485760
20150221191331,10.1.1.1,58049,10.1.1.2,5001,3,14.0-15.0,1310720,10485760
20150221191332,10.1.1.1,58049,10.1.1.2,5001,3,15.0-16.0,1441792,11534336
20150221191333,10.1.1.1,58049,10.1.1.2,5001,3,16.0-17.0,1310720,10485760
20150221191334,10.1.1.1,58049,10.1.1.2,5001,3,17.0-18.0,1441792,11534336
20150221191335,10.1.1.1,58049,10.1.1.2,5001,3,18.0-19.0,1572864,12582912
20150221191336,10.1.1.1,58049,10.1.1.2,5001,3,19.0-20.0,393216,3145728
20150221191337,10.1.1.1,58049,10.1.1.2,5001,3,20.0-21.0,1179648,9437184
20150221191338,10.1.1.1,58049,10.1.1.2,5001,3,21.0-22.0,1310720,10485760
20150221191339,10.1.1.1,58049,10.1.1.2,5001,3,22.0-23.0,1441792,11534336
20150221191340,10.1.1.1,58049,10.1.1.2,5001,3,23.0-24.0,1310720,10485760
20150221191341,10.1.1.1,58049,10.1.1.2,5001,3,24.0-25.0,1310720,10485760
20150221191342,10.1.1.1,58049,10.1.1.2,5001,3,25.0-26.0,1441792,11534336
20150221191343,10.1.1.1,58049,10.1.1.2,5001,3,26.0-27.0,1310720,10485760
20150221191344,10.1.1.1,58049,10.1.1.2,5001,3,27.0-28.0,1441792,11534336
20150221191345,10.1.1.1,58049,10.1.1.2,5001,3,28.0-29.0,1572864,12582912
20150221191346,10.1.1.1,58049,10.1.1.2,5001,3,29.0-30.0,1310720,10485760
20150221191347,10.1.1.1,58049,10.1.1.2,5001,3,30.0-31.0,1441792,11534336
20150221191348,10.1.1.1,58049,10.1.1.2,5001,3,31.0-32.0,1310720,10485760
20150221191349,10.1.1.1,58049,10.1.1.2,5001,3,32.0-33.0,1310720,10485760
20150221191350,10.1.1.1,58049,10.1.1.2,5001,3,33.0-34.0,1441792,11534336
20150221191351,10.1.1.1,58049,10.1.1.2,5001,3,34.0-35.0,1310720,10485760
20150221191352,10.1.1.1,58049,10.1.1.2,5001,3,35.0-36.0,1441792,11534336
20150221191353,10.1.1.1,58049,10.1.1.2,5001,3,36.0-37.0,1310720,10485760
20150221191354,10.1.1.1,58049,10.1.1.2,5001,3,37.0-38.0,1572864,12582912
20150221191355,10.1.1.1,58049,10.1.1.2,5001,3,38.0-39.0,1441792,11534336
20150221191356,10.1.1.1,58049,10.1.1.2,5001,3,39.0-40.0,1310720,10485760
20150221191357,10.1.1.1,58049,10.1.1.2,5001,3,40.0-41.0,1310720,10485760
20150221191358,10.1.1.1,58049,10.1.1.2,5001,3,41.0-42.0,1441792,11534336
20150221191359,10.1.1.1,58049,10.1.1.2,5001,3,42.0-43.0,1310720,10485760
20150221191400,10.1.1.1,58049,10.1.1.2,5001,3,43.0-44.0,1441792,11534336
20150221191401,10.1.1.1,58049,10.1.1.2,5001,3,44.0-45.0,1310720,10485760
20150221191402,10.1.1.1,58049,10.1.1.2,5001,3,45.0-46.0,1441792,11534336
20150221191403,10.1.1.1,58049,10.1.1.2,5001,3,46.0-47.0,1310720,10485760
20150221191404,10.1.1.1,58049,10.1.1.2,5001,3,47.0-48.0,1572864,12582912
20150221191405,10.1.1.1,58049,10.1.1.2,5001,3,48.0-49.0,1310720,10485760
20150221191406,10.1.1.1,58049,10.1.1.2,5001,3,49.0-50.0,1441792,11534336
20150221191407,10.1.1.1,58049,10.1.1.2,5001,3,50.0-51.0,1310720,10485760
20150221191408,10.1.1.1,58049,10.1.1.2,5001,3,51.0-52.0,1441792,11534336
20150221191409,10.1.1.1,58049,10.1.1.2,5001,3,52.0-53.0,1310720,10485760
20150221191410,10.1.1.1,58049,10.1.1.2,5001,3,53.0-54.0,1441792,11534336
20150221191411,10.1.1.1,58049,10.1.1.2,5001,3,54.0-55.0,1310720,10485760
20150221191412,10.1.1.1,58049,10.1.1.2,5001,3,55.0-56.0,1441792,11534336
20150221191413,10.1.1.1,58049,10.1.1.2,5001,3,56.0-57.0,1441792,11534336
20150221191414,10.1.1.1,58049,10.1.1.2,5001,3,57.0-58.0,1441792,11534336
20150221191415,10.1.1.1,58049,10.1.1.2,5001,3,58.0-59.0,1310720,10485760
20150221191416,10.1.1.1,58049,10.1.1.2,5001,3,59.0-60.0,1441792,11534336
20150221191416,10.1.1.1,58049,10.1.1.2,5001,3,0.0-60.2,75628544,10045173
