20150221185641,10.1.1.1,58041,10.1.1.2,5001,5,0.0-1.0,262144,2097152
20150221185641,10.1.1.1,58044,10.1.1.2,5001,8,0.0-1.0,262144,2097152
20150221185641,10.1.1.1,58039,10.1.1.2,5001,3,0.0-1.0,262144,2097152
20150221185641,10.1.1.1,58043,10.1.1.2,5001,7,0.0-1.0,393216,3145728
20150221185641,10.1.1.1,58040,10.1.1.2,5001,4,0.0-1.0,393216,3145728
20150221185641,10.1.1.1,58048,10.1.1.2,5001,12,0.0-1.0,393216,3145728
20150221185641,10.1.1.1,58042,10.1.1.2,5001,6,0.0-1.0,393216,3145728
20150221185641,10.1.1.1,58046,10.1.1.2,5001,10,0.0-1.0,393216,3145728
20150221185641,10.1.1.1,58047,10.1.1.2,5001,11,0.0-1.0,393216,3145728
20150221185641,10.1.1.1,58045,10.1.1.2,5001,9,0.0-1.0,393216,3145728
20150221185641,10.1.1.1,0,10.1.1.2,5001,-1,0.0-1.0,3538944,28311552
20150221185642,10.1.1.1,58041,10.1.1.2,5001,5,1.0-2.0,524288,4194304
20150221185642,10.1.1.1,58044,10.1.1.2,5001,8,1.0-2.0,393216,3145728
20150221185642,10.1.1.1,58040,10.1.1.2,5001,4,1.0-2.0,393216,3145728
20150221185642,10.1.1.1,58042,10.1.1.2,5001,6,1.0-2.0,393216,3145728
20150221185642,10.1.1.1,58045,10.1.1.2,5001,9,1.0-2.0,393216,3145728
20150221185642,10.1.1.1,58046,10.1.1.2,5001,10,1.0-2.0,393216,3145728
20150221185642,10.1.1.1,58047,10.1.1.2,5001,11,1.0-2.0,393216,3145728
20150221185642,10.1.1.1,58048,10.1.1.2,5001,12,1.0-2.0,393216,3145728
20150221185642,10.1.1.1,58043,10.1.1.2,5001,7,1.0-2.0,393216,3145728
20150221185642,10.1.1.1,58039,10.1.1.2,5001,3,1.0-2.0,524288,4194304
20150221185642,10.1.1.1,0,10.1.1.2,5001,-1,1.0-2.0,4194304,33554432
20150221185643,10.1.1.1,58041,10.1.1.2,5001,5,2.0-3.0,393216,3145728
20150221185643,10.1.1.1,58044,10.1.1.2,5001,8,2.0-3.0,655360,5242880
20150221185643,10.1.1.1,58047,10.1.1.2,5001,11,2.0-3.0,524288,4194304
20150221185643,10.1.1.1,58048,10.1.1.2,5001,12,2.0-3.0,524288,4194304
20150221185643,10.1.1.1,58043,10.1.1.2,5001,7,2.0-3.0,524288,4194304
20150221185643,10.1.1.1,58039,10.1.1.2,5001,3,2.0-3.0,393216,3145728
20150221185643,10.1.1.1,58040,10.1.1.2,5001,4,2.0-3.0,524288,4194304
20150221185643,10.1.1.1,58045,10.1.1.2,5001,9,2.0-3.0,524288,4194304
20150221185643,10.1.1.1,58046,10.1.1.2,5001,10,2.0-3.0,524288,4194304
20150221185643,10.1.1.1,58042,10.1.1.2,5001,6,2.0-3.0,524288,4194304
20150221185643,10.1.1.1,0,10.1.1.2,5001,-1,2.0-3.0,5111808,40894464
20150221185644,10.1.1.1,58043,10.1.1.2,5001,7,3.0-4.0,524288,4194304
20150221185644,10.1.1.1,58046,10.1.1.2,5001,10,3.0-4.0,655360,5242880
20150221185644,10.1.1.1,58040,10.1.1.2,5001,4,3.0-4.0,655360,5242880
20150221185644,10.1.1.1,58045,10.1.1.2,5001,9,3.0-4.0,393216,3145728
20150221185644,10.1.1.1,58047,10.1.1.2,5001,11,3.0-4.0,655360,5242880
20150221185644,10.1.1.1,58044,10.1.1.2,5001,8,3.0-4.0,524288,4194304
20150221185644,10.1.1.1,58048,10.1.1.2,5001,12,3.0-4.0,524288,4194304
20150221185644,10.1.1.1,58041,10.1.1.2,5001,5,3.0-4.0,655360,5242880
20150221185644,10.1.1.1,58042,10.1.1.2,5001,6,3.0-4.0,524288,4194304
20150221185644,10.1.1.1,58039,10.1.1.2,5001,3,3.0-4.0,524288,4194304
20150221185644,10.1.1.1,0,10.1.1.2,5001,-1,3.0-4.0,5636096,45088768
20150221185645,10.1.1.1,58043,10.1.1.2,5001,7,4.0-5.0,786432,6291456
20150221185645,10.1.1.1,58044,10.1.1.2,5001,8,4.0-5.0,524288,4194304
20150221185645,10.1.1.1,58040,10.1.1.2,5001,4,4.0-5.0,786432,6291456
20150221185645,10.1.1.1,58041,10.1.1.2,5001,5,4.0-5.0,393216,3145728
20150221185645,10.1.1.1,58046,10.1.1.2,5001,10,4.0-5.0,786432,6291456
20150221185645,10.1.1.1,58047,10.1.1.2,5001,11,4.0-5.0,786432,6291456
20150221185645,10.1.1.1,58045,10.1.1.2,5001,9,4.0-5.0,786432,6291456
20150221185645,10.1.1.1,58039,10.1.1.2,5001,3,4.0-5.0,393216,3145728
20150221185645,10.1.1.1,58048,10.1.1.2,5001,12,4.0-5.0,655360,5242880
20150221185645,10.1.1.1,58042,10.1.1.2,5001,6,4.0-5.0,655360,5242880
20150221185645,10.1.1.1,0,10.1.1.2,5001,-1,4.0-5.0,6553600,52428800
20150221185646,10.1.1.1,58040,10.1.1.2,5001,4,5.0-6.0,917504,7340032
20150221185646,10.1.1.1,58046,10.1.1.2,5001,10,5.0-6.0,786432,6291456
20150221185646,10.1.1.1,58047,10.1.1.2,5001,11,5.0-6.0,917504,7340032
20150221185646,10.1.1.1,58041,10.1.1.2,5001,5,5.0-6.0,786432,6291456
20150221185646,10.1.1.1,58045,10.1.1.2,5001,9,5.0-6.0,917504,7340032
20150221185646,10.1.1.1,58048,10.1.1.2,5001,12,5.0-6.0,917504,7340032
20150221185646,10.1.1.1,58042,10.1.1.2,5001,6,5.0-6.0,786432,6291456
20150221185646,10.1.1.1,58043,10.1.1.2,5001,7,5.0-6.0,1048576,8388608
20150221185646,10.1.1.1,58039,10.1.1.2,5001,3,5.0-6.0,786432,6291456
20150221185646,10.1.1.1,58044,10.1.1.2,5001,8,5.0-6.0,1048576,8388608
20150221185646,10.1.1.1,0,10.1.1.2,5001,-1,5.0-6.0,8912896,71303168
20150221185647,10.1.1.1,58041,10.1.1.2,5001,5,6.0-7.0,917504,7340032
20150221185647,10.1.1.1,58045,10.1.1.2,5001,9,6.0-7.0,786432,6291456
20150221185647,10.1.1.1,58048,10.1.1.2,5001,12,6.0-7.0,786432,6291456
20150221185647,10.1.1.1,58042,10.1.1.2,5001,6,6.0-7.0,786432,6291456
20150221185647,10.1.1.1,58043,10.1.1.2,5001,7,6.0-7.0,786432,6291456
20150221185647,10.1.1.1,58039,10.1.1.2,5001,3,6.0-7.0,917504,7340032
20150221185647,10.1.1.1,58044,10.1.1.2,5001,8,6.0-7.0,786432,6291456
20150221185647,10.1.1.1,58040,10.1.1.2,5001,4,6.0-7.0,1048576,8388608
20150221185647,10.1.1.1,58046,10.1.1.2,5001,10,6.0-7.0,1048576,8388608
20150221185647,10.1.1.1,58047,10.1.1.2,5001,11,6.0-7.0,1048576,8388608
20150221185647,10.1.1.1,0,10.1.1.2,5001,-1,6.0-7.0,8912896,71303168
20150221185648,10.1.1.1,58042,10.1.1.2,5001,6,7.0-8.0,917504,7340032
20150221185648,10.1.1.1,58043,10.1.1.2,5001,7,7.0-8.0,917504,7340032
20150221185648,10.1.1.1,58039,10.1.1.2,5001,3,7.0-8.0,786432,6291456
20150221185648,10.1.1.1,58044,10.1.1.2,5001,8,7.0-8.0,917504,7340032
20150221185648,10.1.1.1,58040,10.1.1.2,5001,4,7.0-8.0,786432,6291456
20150221185648,10.1.1.1,58046,10.1.1.2,5001,10,7.0-8.0,917504,7340032
20150221185648,10.1.1.1,58047,10.1.1.2,5001,11,7.0-8.0,786432,6291456
20150221185648,10.1.1.1,58041,10.1.1.2,5001,5,7.0-8.0,1048576,8388608
20150221185648,10.1.1.1,58045,10.1.1.2,5001,9,7.0-8.0,1048576,8388608
20150221185648,10.1.1.1,58048,10.1.1.2,5001,12,7.0-8.0,1048576,8388608
20150221185648,10.1.1.1,0,10.1.1.2,5001,-1,7.0-8.0,9175040,73400320
20150221185649,10.1.1.1,58040,10.1.1.2,5001,4,8.0-9.0,917504,7340032
20150221185649,10.1.1.1,58045,10.1.1.2,5001,9,8.0-9.0,786432,6291456
20150221185649,10.1.1.1,58046,10.1.1.2,5001,10,8.0-9.0,786432,6291456
20150221185649,10.1.1.1,58047,10.1.1.2,5001,11,8.0-9.0,917504,7340032
20150221185649,10.1.1.1,58041,10.1.1.2,5001,5,8.0-9.0,786432,6291456
20150221185649,10.1.1.1,58042,10.1.1.2,5001,6,8.0-9.0,1048576,8388608
20150221185649,10.1.1.1,58043,10.1.1.2,5001,7,8.0-9.0,1048576,8388608
20150221185649,10.1.1.1,58039,10.1.1.2,5001,3,8.0-9.0,1048576,8388608
20150221185649,10.1.1.1,58044,10.1.1.2,5001,8,8.0-9.0,1048576,8388608
20150221185649,10.1.1.1,58048,10.1.1.2,5001,12,8.0-9.0,917504,7340032
20150221185649,10.1.1.1,0,10.1.1.2,5001,-1,8.0-9.0,9306112,74448896
20150221185650,10.1.1.1,58040,10.1.1.2,5001,4,9.0-10.0,917504,7340032
20150221185650,10.1.1.1,58042,10.1.1.2,5001,6,9.0-10.0,917504,7340032
20150221185650,10.1.1.1,58043,10.1.1.2,5001,7,9.0-10.0,917504,7340032
20150221185650,10.1.1.1,58039,10.1.1.2,5001,3,9.0-10.0,917504,7340032
20150221185650,10.1.1.1,58044,10.1.1.2,5001,8,9.0-10.0,786432,6291456
20150221185650,10.1.1.1,58048,10.1.1.2,5001,12,9.0-10.0,786432,6291456
20150221185650,10.1.1.1,58045,10.1.1.2,5001,9,9.0-10.0,1179648,9437184
20150221185650,10.1.1.1,58046,10.1.1.2,5001,10,9.0-10.0,1179648,9437184
20150221185650,10.1.1.1,58047,10.1.1.2,5001,11,9.0-10.0,1048576,8388608
20150221185650,10.1.1.1,58041,10.1.1.2,5001,5,9.0-10.0,1179648,9437184
20150221185650,10.1.1.1,0,10.1.1.2,5001,-1,9.0-10.0,9830400,78643200
20150221185651,10.1.1.1,58044,10.1.1.2,5001,8,10.0-11.0,917504,7340032
20150221185651,10.1.1.1,58048,10.1.1.2,5001,12,10.0-11.0,917504,7340032
20150221185651,10.1.1.1,58045,10.1.1.2,5001,9,10.0-11.0,786432,6291456
20150221185651,10.1.1.1,58046,10.1.1.2,5001,10,10.0-11.0,786432,6291456
20150221185651,10.1.1.1,58047,10.1.1.2,5001,11,10.0-11.0,917504,7340032
20150221185651,10.1.1.1,58041,10.1.1.2,5001,5,10.0-11.0,786432,6291456
20150221185651,10.1.1.1,58039,10.1.1.2,5001,3,10.0-11.0,1048576,8388608
20150221185651,10.1.1.1,58042,10.1.1.2,5001,6,10.0-11.0,1048576,8388608
20150221185651,10.1.1.1,58043,10.1.1.2,5001,7,10.0-11.0,1048576,8388608
20150221185651,10.1.1.1,58040,10.1.1.2,5001,4,10.0-11.0,1048576,8388608
20150221185651,10.1.1.1,0,10.1.1.2,5001,-1,10.0-11.0,9306112,74448896
20150221185652,10.1.1.1,58041,10.1.1.2,5001,5,11.0-12.0,917504,7340032
20150221185652,10.1.1.1,58039,10.1.1.2,5001,3,11.0-12.0,786432,6291456
20150221185652,10.1.1.1,58040,10.1.1.2,5001,4,11.0-12.0,917504,7340032
20150221185652,10.1.1.1,58042,10.1.1.2,5001,6,11.0-12.0,786432,6291456
20150221185652,10.1.1.1,58043,10.1.1.2,5001,7,11.0-12.0,786432,6291456
20150221185652,10.1.1.1,58047,10.1.1.2,5001,11,11.0-12.0,917504,7340032
20150221185652,10.1.1.1,58044,10.1.1.2,5001,8,11.0-12.0,1048576,8388608
20150221185652,10.1.1.1,58048,10.1.1.2,5001,12,11.0-12.0,1048576,8388608
20150221185652,10.1.1.1,58045,10.1.1.2,5001,9,11.0-12.0,1048576,8388608
20150221185652,10.1.1.1,58046,10.1.1.2,5001,10,11.0-12.0,1048576,8388608
20150221185652,10.1.1.1,0,10.1.1.2,5001,-1,11.0-12.0,9306112,74448896
20150221185653,10.1.1.1,58040,10.1.1.2,5001,4,12.0-13.0,786432,6291456
20150221185653,10.1.1.1,58042,10.1.1.2,5001,6,12.0-13.0,917504,7340032
20150221185653,10.1.1.1,58043,10.1.1.2,5001,7,12.0-13.0,917504,7340032
20150221185653,10.1.1.1,58047,10.1.1.2,5001,11,12.0-13.0,786432,6291456
20150221185653,10.1.1.1,58039,10.1.1.2,5001,3,12.0-13.0,917504,7340032
20150221185653,10.1.1.1,58044,10.1.1.2,5001,8,12.0-13.0,917504,7340032
20150221185653,10.1.1.1,58048,10.1.1.2,5001,12,12.0-13.0,917504,7340032
20150221185653,10.1.1.1,58045,10.1.1.2,5001,9,12.0-13.0,917504,7340032
20150221185653,10.1.1.1,58046,10.1.1.2,5001,10,12.0-13.0,917504,7340032
20150221185653,10.1.1.1,58041,10.1.1.2,5001,5,12.0-13.0,1048576,8388608
20150221185653,10.1.1.1,0,10.1.1.2,5001,-1,12.0-13.0,9043968,72351744
20150221185654,10.1.1.1,58045,10.1.1.2,5001,9,13.0-14.0,786432,6291456
20150221185654,10.1.1.1,58041,10.1.1.2,5001,5,13.0-14.0,786432,6291456
20150221185654,10.1.1.1,58042,10.1.1.2,5001,6,13.0-14.0,917504,7340032
20150221185654,10.1.1.1,58043,10.1.1.2,5001,7,13.0-14.0,917504,7340032
20150221185654,10.1.1.1,58046,10.1.1.2,5001,10,13.0-14.0,786432,6291456
20150221185654,10.1.1.1,58048,10.1.1.2,5001,12,13.0-14.0,917504,7340032
20150221185654,10.1.1.1,58040,10.1.1.2,5001,4,13.0-14.0,1048576,8388608
20150221185654,10.1.1.1,58047,10.1.1.2,5001,11,13.0-14.0,1048576,8388608
20150221185654,10.1.1.1,58039,10.1.1.2,5001,3,13.0-14.0,1048576,8388608
20150221185654,10.1.1.1,58044,10.1.1.2,5001,8,13.0-14.0,1048576,8388608
20150221185654,10.1.1.1,0,10.1.1.2,5001,-1,13.0-14.0,9306112,74448896
20150221185655,10.1.1.1,58041,10.1.1.2,5001,5,14.0-15.0,917504,7340032
20150221185655,10.1.1.1,58042,10.1.1.2,5001,6,14.0-15.0,786432,6291456
20150221185655,10.1.1.1,58043,10.1.1.2,5001,7,14.0-15.0,786432,6291456
20150221185655,10.1.1.1,58046,10.1.1.2,5001,10,14.0-15.0,917504,7340032
20150221185655,10.1.1.1,58048,10.1.1.2,5001,12,14.0-15.0,917504,7340032
20150221185655,10.1.1.1,58040,10.1.1.2,5001,4,14.0-15.0,917504,7340032
20150221185655,10.1.1.1,58047,10.1.1.2,5001,11,14.0-15.0,917504,7340032
20150221185655,10.1.1.1,58039,10.1.1.2,5001,3,14.0-15.0,786432,6291456
20150221185655,10.1.1.1,58044,10.1.1.2,5001,8,14.0-15.0,786432,6291456
20150221185655,10.1.1.1,58045,10.1.1.2,5001,9,14.0-15.0,1048576,8388608
20150221185655,10.1.1.1,0,10.1.1.2,5001,-1,14.0-15.0,8781824,70254592
20150221185656,10.1.1.1,58040,10.1.1.2,5001,4,15.0-16.0,786432,6291456
20150221185656,10.1.1.1,58047,10.1.1.2,5001,11,15.0-16.0,786432,6291456
20150221185656,10.1.1.1,58039,10.1.1.2,5001,3,15.0-16.0,917504,7340032
20150221185656,10.1.1.1,58044,10.1.1.2,5001,8,15.0-16.0,917504,7340032
20150221185656,10.1.1.1,58041,10.1.1.2,5001,5,15.0-16.0,1048576,8388608
20150221185656,10.1.1.1,58042,10.1.1.2,5001,6,15.0-16.0,1048576,8388608
20150221185656,10.1.1.1,58043,10.1.1.2,5001,7,15.0-16.0,1048576,8388608
20150221185656,10.1.1.1,58045,10.1.1.2,5001,9,15.0-16.0,917504,7340032
20150221185656,10.1.1.1,58046,10.1.1.2,5001,10,15.0-16.0,1048576,8388608
20150221185656,10.1.1.1,58048,10.1.1.2,5001,12,15.0-16.0,1048576,8388608
20150221185656,10.1.1.1,0,10.1.1.2,5001,-1,15.0-16.0,9568256,76546048
20150221185657,10.1.1.1,58041,10.1.1.2,5001,5,16.0-17.0,655360,5242880
20150221185657,10.1.1.1,58042,10.1.1.2,5001,6,16.0-17.0,917504,7340032
20150221185657,10.1.1.1,58043,10.1.1.2,5001,7,16.0-17.0,917504,7340032
20150221185657,10.1.1.1,58045,10.1.1.2,5001,9,16.0-17.0,786432,6291456
20150221185657,10.1.1.1,58046,10.1.1.2,5001,10,16.0-17.0,786432,6291456
20150221185657,10.1.1.1,58044,10.1.1.2,5001,8,16.0-17.0,917504,7340032
20150221185657,10.1.1.1,58048,10.1.1.2,5001,12,16.0-17.0,786432,6291456
20150221185657,10.1.1.1,58040,10.1.1.2,5001,4,16.0-17.0,1048576,8388608
20150221185657,10.1.1.1,58047,10.1.1.2,5001,11,16.0-17.0,1048576,8388608
20150221185657,10.1.1.1,58039,10.1.1.2,5001,3,16.0-17.0,1048576,8388608
20150221185657,10.1.1.1,0,10.1.1.2,5001,-1,16.0-17.0,8912896,71303168
20150221185658,10.1.1.1,58042,10.1.1.2,5001,6,17.0-18.0,786432,6291456
20150221185658,10.1.1.1,58043,10.1.1.2,5001,7,17.0-18.0,786432,6291456
20150221185658,10.1.1.1,58045,10.1.1.2,5001,9,17.0-18.0,917504,7340032
20150221185658,10.1.1.1,58046,10.1.1.2,5001,10,17.0-18.0,917504,7340032
20150221185658,10.1.1.1,58044,10.1.1.2,5001,8,17.0-18.0,786432,6291456
20150221185658,10.1.1.1,58048,10.1.1.2,5001,12,17.0-18.0,917504,7340032
20150221185658,10.1.1.1,58040,10.1.1.2,5001,4,17.0-18.0,917504,7340032
20150221185658,10.1.1.1,58047,10.1.1.2,5001,11,17.0-18.0,917504,7340032
20150221185658,10.1.1.1,58039,10.1.1.2,5001,3,17.0-18.0,786432,6291456
20150221185658,10.1.1.1,58041,10.1.1.2,5001,5,17.0-18.0,1048576,8388608
20150221185658,10.1.1.1,0,10.1.1.2,5001,-1,17.0-18.0,8781824,70254592
20150221185659,10.1.1.1,58047,10.1.1.2,5001,11,18.0-19.0,786432,6291456
20150221185659,10.1.1.1,58039,10.1.1.2,5001,3,18.0-19.0,917504,7340032
20150221185659,10.1.1.1,58042,10.1.1.2,5001,6,18.0-19.0,1179648,9437184
20150221185659,10.1.1.1,58043,10.1.1.2,5001,7,18.0-19.0,1179648,9437184
20150221185659,10.1.1.1,58045,10.1.1.2,5001,9,18.0-19.0,1048576,8388608
20150221185659,10.1.1.1,58046,10.1.1.2,5001,10,18.0-19.0,1048576,8388608
20150221185659,10.1.1.1,58044,10.1.1.2,5001,8,18.0-19.0,1048576,8388608
20150221185659,10.1.1.1,58048,10.1.1.2,5001,12,18.0-19.0,1048576,8388608
20150221185659,10.1.1.1,58040,10.1.1.2,5001,4,18.0-19.0,1048576,8388608
20150221185659,10.1.1.1,58041,10.1.1.2,5001,5,18.0-19.0,1048576,8388608
20150221185659,10.1.1.1,0,10.1.1.2,5001,-1,18.0-19.0,10354688,82837504
20150221185700,10.1.1.1,58042,10.1.1.2,5001,6,19.0-20.0,786432,6291456
20150221185700,10.1.1.1,58043,10.1.1.2,5001,7,19.0-20.0,786432,6291456
20150221185700,10.1.1.1,58045,10.1.1.2,5001,9,19.0-20.0,917504,7340032
20150221185700,10.1.1.1,58046,10.1.1.2,5001,10,19.0-20.0,917504,7340032
20150221185700,10.1.1.1,58044,10.1.1.2,5001,8,19.0-20.0,917504,7340032
20150221185700,10.1.1.1,58048,10.1.1.2,5001,12,19.0-20.0,786432,6291456
20150221185700,10.1.1.1,58040,10.1.1.2,5001,4,19.0-20.0,917504,7340032
20150221185700,10.1.1.1,58041,10.1.1.2,5001,5,19.0-20.0,917504,7340032
20150221185700,10.1.1.1,58047,10.1.1.2,5001,11,19.0-20.0,1179648,9437184
20150221185700,10.1.1.1,58039,10.1.1.2,5001,3,19.0-20.0,1048576,8388608
20150221185700,10.1.1.1,0,10.1.1.2,5001,-1,19.0-20.0,9175040,73400320
20150221185701,10.1.1.1,58040,10.1.1.2,5001,4,20.0-21.0,786432,6291456
20150221185701,10.1.1.1,58041,10.1.1.2,5001,5,20.0-21.0,786432,6291456
20150221185701,10.1.1.1,58047,10.1.1.2,5001,11,20.0-21.0,786432,6291456
20150221185701,10.1.1.1,58039,10.1.1.2,5001,3,20.0-21.0,917504,7340032
20150221185701,10.1.1.1,58048,10.1.1.2,5001,12,20.0-21.0,917504,7340032
20150221185701,10.1.1.1,58042,10.1.1.2,5001,6,20.0-21.0,1048576,8388608
20150221185701,10.1.1.1,58043,10.1.1.2,5001,7,20.0-21.0,1048576,8388608
20150221185701,10.1.1.1,58045,10.1.1.2,5001,9,20.0-21.0,1048576,8388608
20150221185701,10.1.1.1,58046,10.1.1.2,5001,10,20.0-21.0,1048576,8388608
20150221185701,10.1.1.1,58044,10.1.1.2,5001,8,20.0-21.0,1048576,8388608
20150221185701,10.1.1.1,0,10.1.1.2,5001,-1,20.0-21.0,9437184,75497472
20150221185702,10.1.1.1,58040,10.1.1.2,5001,4,21.0-22.0,917504,7340032
20150221185702,10.1.1.1,58042,10.1.1.2,5001,6,21.0-22.0,917504,7340032
20150221185702,10.1.1.1,58043,10.1.1.2,5001,7,21.0-22.0,917504,7340032
20150221185702,10.1.1.1,58045,10.1.1.2,5001,9,21.0-22.0,786432,6291456
20150221185702,10.1.1.1,58046,10.1.1.2,5001,10,21.0-22.0,786432,6291456
20150221185702,10.1.1.1,58044,10.1.1.2,5001,8,21.0-22.0,917504,7340032
20150221185702,10.1.1.1,58041,10.1.1.2,5001,5,21.0-22.0,1048576,8388608
20150221185702,10.1.1.1,58047,10.1.1.2,5001,11,21.0-22.0,1048576,8388608
20150221185702,10.1.1.1,58039,10.1.1.2,5001,3,21.0-22.0,1048576,8388608
20150221185702,10.1.1.1,58048,10.1.1.2,5001,12,21.0-22.0,1048576,8388608
20150221185702,10.1.1.1,0,10.1.1.2,5001,-1,21.0-22.0,9437184,75497472
20150221185703,10.1.1.1,58042,10.1.1.2,5001,6,22.0-23.0,786432,6291456
20150221185703,10.1.1.1,58043,10.1.1.2,5001,7,22.0-23.0,786432,6291456
20150221185703,10.1.1.1,58045,10.1.1.2,5001,9,22.0-23.0,917504,7340032
20150221185703,10.1.1.1,58046,10.1.1.2,5001,10,22.0-23.0,917504,7340032
20150221185703,10.1.1.1,58044,10.1.1.2,5001,8,22.0-23.0,786432,6291456
20150221185703,10.1.1.1,58041,10.1.1.2,5001,5,22.0-23.0,917504,7340032
20150221185703,10.1.1.1,58047,10.1.1.2,5001,11,22.0-23.0,917504,7340032
20150221185703,10.1.1.1,58039,10.1.1.2,5001,3,22.0-23.0,786432,6291456
20150221185703,10.1.1.1,58048,10.1.1.2,5001,12,22.0-23.0,917504,7340032
20150221185703,10.1.1.1,58040,10.1.1.2,5001,4,22.0-23.0,1048576,8388608
20150221185703,10.1.1.1,0,10.1.1.2,5001,-1,22.0-23.0,8781824,70254592
20150221185704,10.1.1.1,58041,10.1.1.2,5001,5,23.0-24.0,786432,6291456
20150221185704,10.1.1.1,58039,10.1.1.2,5001,3,23.0-24.0,917504,7340032
20150221185704,10.1.1.1,58048,10.1.1.2,5001,12,23.0-24.0,786432,6291456
20150221185704,10.1.1.1,58040,10.1.1.2,5001,4,23.0-24.0,786432,6291456
20150221185704,10.1.1.1,58047,10.1.1.2,5001,11,23.0-24.0,786432,6291456
20150221185704,10.1.1.1,58042,10.1.1.2,5001,6,23.0-24.0,1048576,8388608
20150221185704,10.1.1.1,58043,10.1.1.2,5001,7,23.0-24.0,1048576,8388608
20150221185704,10.1.1.1,58045,10.1.1.2,5001,9,23.0-24.0,1048576,8388608
20150221185704,10.1.1.1,58046,10.1.1.2,5001,10,23.0-24.0,1048576,8388608
20150221185704,10.1.1.1,58044,10.1.1.2,5001,8,23.0-24.0,1048576,8388608
20150221185704,10.1.1.1,0,10.1.1.2,5001,-1,23.0-24.0,9306112,74448896
20150221185705,10.1.1.1,58040,10.1.1.2,5001,4,24.0-25.0,917504,7340032
20150221185705,10.1.1.1,58047,10.1.1.2,5001,11,24.0-25.0,917504,7340032
20150221185705,10.1.1.1,58042,10.1.1.2,5001,6,24.0-25.0,917504,7340032
20150221185705,10.1.1.1,58043,10.1.1.2,5001,7,24.0-25.0,917504,7340032
20150221185705,10.1.1.1,58045,10.1.1.2,5001,9,24.0-25.0,786432,6291456
20150221185705,10.1.1.1,58046,10.1.1.2,5001,10,24.0-25.0,786432,6291456
20150221185705,10.1.1.1,58039,10.1.1.2,5001,3,24.0-25.0,917504,7340032
20150221185705,10.1.1.1,58044,10.1.1.2,5001,8,24.0-25.0,917504,7340032
20150221185705,10.1.1.1,58041,10.1.1.2,5001,5,24.0-25.0,1048576,8388608
20150221185705,10.1.1.1,58048,10.1.1.2,5001,12,24.0-25.0,1048576,8388608
20150221185705,10.1.1.1,0,10.1.1.2,5001,-1,24.0-25.0,9175040,73400320
20150221185706,10.1.1.1,58043,10.1.1.2,5001,7,25.0-26.0,786432,6291456
20150221185706,10.1.1.1,58045,10.1.1.2,5001,9,25.0-26.0,917504,7340032
20150221185706,10.1.1.1,58046,10.1.1.2,5001,10,25.0-26.0,917504,7340032
20150221185706,10.1.1.1,58044,10.1.1.2,5001,8,25.0-26.0,786432,6291456
20150221185706,10.1.1.1,58041,10.1.1.2,5001,5,25.0-26.0,917504,7340032
20150221185706,10.1.1.1,58042,10.1.1.2,5001,6,25.0-26.0,786432,6291456
20150221185706,10.1.1.1,58048,10.1.1.2,5001,12,25.0-26.0,917504,7340032
20150221185706,10.1.1.1,58040,10.1.1.2,5001,4,25.0-26.0,1048576,8388608
20150221185706,10.1.1.1,58047,10.1.1.2,5001,11,25.0-26.0,1048576,8388608
20150221185706,10.1.1.1,58039,10.1.1.2,5001,3,25.0-26.0,917504,7340032
20150221185706,10.1.1.1,0,10.1.1.2,5001,-1,25.0-26.0,9043968,72351744
20150221185707,10.1.1.1,58041,10.1.1.2,5001,5,26.0-27.0,786432,6291456
20150221185707,10.1.1.1,58042,10.1.1.2,5001,6,26.0-27.0,917504,7340032
20150221185707,10.1.1.1,58043,10.1.1.2,5001,7,26.0-27.0,917504,7340032
20150221185707,10.1.1.1,58048,10.1.1.2,5001,12,26.0-27.0,786432,6291456
20150221185707,10.1.1.1,58040,10.1.1.2,5001,4,26.0-27.0,786432,6291456
20150221185707,10.1.1.1,58046,10.1.1.2,5001,10,26.0-27.0,917504,7340032
20150221185707,10.1.1.1,58047,10.1.1.2,5001,11,26.0-27.0,786432,6291456
20150221185707,10.1.1.1,58039,10.1.1.2,5001,3,26.0-27.0,917504,7340032
20150221185707,10.1.1.1,58045,10.1.1.2,5001,9,26.0-27.0,1048576,8388608
20150221185707,10.1.1.1,58044,10.1.1.2,5001,8,26.0-27.0,1048576,8388608
20150221185707,10.1.1.1,0,10.1.1.2,5001,-1,26.0-27.0,8912896,71303168
20150221185708,10.1.1.1,58040,10.1.1.2,5001,4,27.0-28.0,917504,7340032
20150221185708,10.1.1.1,58046,10.1.1.2,5001,10,27.0-28.0,786432,6291456
20150221185708,10.1.1.1,58047,10.1.1.2,5001,11,27.0-28.0,917504,7340032
20150221185708,10.1.1.1,58039,10.1.1.2,5001,3,27.0-28.0,786432,6291456
20150221185708,10.1.1.1,58045,10.1.1.2,5001,9,27.0-28.0,786432,6291456
20150221185708,10.1.1.1,58044,10.1.1.2,5001,8,27.0-28.0,917504,7340032
20150221185708,10.1.1.1,58041,10.1.1.2,5001,5,27.0-28.0,1048576,8388608
20150221185708,10.1.1.1,58042,10.1.1.2,5001,6,27.0-28.0,1048576,8388608
20150221185708,10.1.1.1,58043,10.1.1.2,5001,7,27.0-28.0,1048576,8388608
20150221185708,10.1.1.1,58048,10.1.1.2,5001,12,27.0-28.0,1048576,8388608
20150221185708,10.1.1.1,0,10.1.1.2,5001,-1,27.0-28.0,9306112,74448896
20150221185709,10.1.1.1,58044,10.1.1.2,5001,8,28.0-29.0,786432,6291456
20150221185709,10.1.1.1,58042,10.1.1.2,5001,6,28.0-29.0,917504,7340032
20150221185709,10.1.1.1,58048,10.1.1.2,5001,12,28.0-29.0,917504,7340032
20150221185709,10.1.1.1,58041,10.1.1.2,5001,5,28.0-29.0,917504,7340032
20150221185709,10.1.1.1,58040,10.1.1.2,5001,4,28.0-29.0,1048576,8388608
20150221185709,10.1.1.1,58045,10.1.1.2,5001,9,28.0-29.0,1048576,8388608
20150221185709,10.1.1.1,58046,10.1.1.2,5001,10,28.0-29.0,1179648,9437184
20150221185709,10.1.1.1,58047,10.1.1.2,5001,11,28.0-29.0,1048576,8388608
20150221185709,10.1.1.1,58039,10.1.1.2,5001,3,28.0-29.0,1179648,9437184
20150221185709,10.1.1.1,58043,10.1.1.2,5001,7,28.0-29.0,1048576,8388608
20150221185709,10.1.1.1,0,10.1.1.2,5001,-1,28.0-29.0,10092544,80740352
20150221185710,10.1.1.1,58044,10.1.1.2,5001,8,29.0-30.0,917504,7340032
20150221185710,10.1.1.1,58048,10.1.1.2,5001,12,29.0-30.0,786432,6291456
20150221185710,10.1.1.1,58041,10.1.1.2,5001,5,29.0-30.0,917504,7340032
20150221185710,10.1.1.1,58040,10.1.1.2,5001,4,29.0-30.0,917504,7340032
20150221185710,10.1.1.1,58043,10.1.1.2,5001,7,29.0-30.0,786432,6291456
20150221185710,10.1.1.1,58045,10.1.1.2,5001,9,29.0-30.0,786432,6291456
20150221185710,10.1.1.1,58046,10.1.1.2,5001,10,29.0-30.0,786432,6291456
20150221185710,10.1.1.1,58047,10.1.1.2,5001,11,29.0-30.0,917504,7340032
20150221185710,10.1.1.1,58039,10.1.1.2,5001,3,29.0-30.0,786432,6291456
20150221185710,10.1.1.1,58042,10.1.1.2,5001,6,29.0-30.0,1048576,8388608
20150221185710,10.1.1.1,0,10.1.1.2,5001,-1,29.0-30.0,8650752,69206016
20150221185711,10.1.1.1,58042,10.1.1.2,5001,6,30.0-31.0,786432,6291456
20150221185711,10.1.1.1,58044,10.1.1.2,5001,8,30.0-31.0,1048576,8388608
20150221185711,10.1.1.1,58048,10.1.1.2,5001,12,30.0-31.0,1179648,9437184
20150221185711,10.1.1.1,58040,10.1.1.2,5001,4,30.0-31.0,1048576,8388608
20150221185711,10.1.1.1,58041,10.1.1.2,5001,5,30.0-31.0,1048576,8388608
20150221185711,10.1.1.1,58043,10.1.1.2,5001,7,30.0-31.0,1048576,8388608
20150221185711,10.1.1.1,58045,10.1.1.2,5001,9,30.0-31.0,1048576,8388608
20150221185711,10.1.1.1,58046,10.1.1.2,5001,10,30.0-31.0,1048576,8388608
20150221185711,10.1.1.1,58047,10.1.1.2,5001,11,30.0-31.0,1048576,8388608
20150221185711,10.1.1.1,58039,10.1.1.2,5001,3,30.0-31.0,1048576,8388608
20150221185711,10.1.1.1,0,10.1.1.2,5001,-1,30.0-31.0,10354688,82837504
20150221185712,10.1.1.1,58042,10.1.1.2,5001,6,31.0-32.0,917504,7340032
20150221185712,10.1.1.1,58044,10.1.1.2,5001,8,31.0-32.0,917504,7340032
20150221185712,10.1.1.1,58048,10.1.1.2,5001,12,31.0-32.0,786432,6291456
20150221185712,10.1.1.1,58041,10.1.1.2,5001,5,31.0-32.0,786432,6291456
20150221185712,10.1.1.1,58043,10.1.1.2,5001,7,31.0-32.0,786432,6291456
20150221185712,10.1.1.1,58040,10.1.1.2,5001,4,31.0-32.0,786432,6291456
20150221185712,10.1.1.1,58045,10.1.1.2,5001,9,31.0-32.0,917504,7340032
20150221185712,10.1.1.1,58046,10.1.1.2,5001,10,31.0-32.0,917504,7340032
20150221185712,10.1.1.1,58047,10.1.1.2,5001,11,31.0-32.0,786432,6291456
20150221185712,10.1.1.1,58039,10.1.1.2,5001,3,31.0-32.0,917504,7340032
20150221185712,10.1.1.1,0,10.1.1.2,5001,-1,31.0-32.0,8519680,68157440
20150221185713,10.1.1.1,58041,10.1.1.2,5001,5,32.0-33.0,917504,7340032
20150221185713,10.1.1.1,58040,10.1.1.2,5001,4,32.0-33.0,917504,7340032
20150221185713,10.1.1.1,58043,10.1.1.2,5001,7,32.0-33.0,917504,7340032
20150221185713,10.1.1.1,58045,10.1.1.2,5001,9,32.0-33.0,786432,6291456
20150221185713,10.1.1.1,58046,10.1.1.2,5001,10,32.0-33.0,786432,6291456
20150221185713,10.1.1.1,58047,10.1.1.2,5001,11,32.0-33.0,917504,7340032
20150221185713,10.1.1.1,58039,10.1.1.2,5001,3,32.0-33.0,786432,6291456
20150221185713,10.1.1.1,58042,10.1.1.2,5001,6,32.0-33.0,1048576,8388608
20150221185713,10.1.1.1,58044,10.1.1.2,5001,8,32.0-33.0,1048576,8388608
20150221185713,10.1.1.1,58048,10.1.1.2,5001,12,32.0-33.0,1048576,8388608
20150221185713,10.1.1.1,0,10.1.1.2,5001,-1,32.0-33.0,9175040,73400320
20150221185714,10.1.1.1,58040,10.1.1.2,5001,4,33.0-34.0,917504,7340032
20150221185714,10.1.1.1,58042,10.1.1.2,5001,6,33.0-34.0,786432,6291456
20150221185714,10.1.1.1,58044,10.1.1.2,5001,8,33.0-34.0,786432,6291456
20150221185714,10.1.1.1,58041,10.1.1.2,5001,5,33.0-34.0,1048576,8388608
20150221185714,10.1.1.1,58043,10.1.1.2,5001,7,33.0-34.0,1048576,8388608
20150221185714,10.1.1.1,58045,10.1.1.2,5001,9,33.0-34.0,1048576,8388608
20150221185714,10.1.1.1,58046,10.1.1.2,5001,10,33.0-34.0,1048576,8388608
20150221185714,10.1.1.1,58039,10.1.1.2,5001,3,33.0-34.0,1048576,8388608
20150221185714,10.1.1.1,58047,10.1.1.2,5001,11,33.0-34.0,1048576,8388608
20150221185714,10.1.1.1,58048,10.1.1.2,5001,12,33.0-34.0,917504,7340032
20150221185714,10.1.1.1,0,10.1.1.2,5001,-1,33.0-34.0,9699328,77594624
20150221185715,10.1.1.1,58040,10.1.1.2,5001,4,34.0-35.0,786432,6291456
20150221185715,10.1.1.1,58042,10.1.1.2,5001,6,34.0-35.0,917504,7340032
20150221185715,10.1.1.1,58044,10.1.1.2,5001,8,34.0-35.0,917504,7340032
20150221185715,10.1.1.1,58041,10.1.1.2,5001,5,34.0-35.0,786432,6291456
20150221185715,10.1.1.1,58043,10.1.1.2,5001,7,34.0-35.0,786432,6291456
20150221185715,10.1.1.1,58045,10.1.1.2,5001,9,34.0-35.0,917504,7340032
20150221185715,10.1.1.1,58046,10.1.1.2,5001,10,34.0-35.0,917504,7340032
20150221185715,10.1.1.1,58047,10.1.1.2,5001,11,34.0-35.0,786432,6291456
20150221185715,10.1.1.1,58039,10.1.1.2,5001,3,34.0-35.0,917504,7340032
20150221185715,10.1.1.1,58048,10.1.1.2,5001,12,34.0-35.0,786432,6291456
20150221185715,10.1.1.1,0,10.1.1.2,5001,-1,34.0-35.0,8519680,68157440
20150221185716,10.1.1.1,58041,10.1.1.2,5001,5,35.0-36.0,917504,7340032
20150221185716,10.1.1.1,58043,10.1.1.2,5001,7,35.0-36.0,917504,7340032
20150221185716,10.1.1.1,58046,10.1.1.2,5001,10,35.0-36.0,786432,6291456
20150221185716,10.1.1.1,58047,10.1.1.2,5001,11,35.0-36.0,917504,7340032
20150221185716,10.1.1.1,58039,10.1.1.2,5001,3,35.0-36.0,786432,6291456
20150221185716,10.1.1.1,58048,10.1.1.2,5001,12,35.0-36.0,917504,7340032
20150221185716,10.1.1.1,58040,10.1.1.2,5001,4,35.0-36.0,1048576,8388608
20150221185716,10.1.1.1,58042,10.1.1.2,5001,6,35.0-36.0,1048576,8388608
20150221185716,10.1.1.1,58045,10.1.1.2,5001,9,35.0-36.0,917504,7340032
20150221185716,10.1.1.1,58044,10.1.1.2,5001,8,35.0-36.0,1048576,8388608
20150221185716,10.1.1.1,0,10.1.1.2,5001,-1,35.0-36.0,9306112,74448896
20150221185717,10.1.1.1,58040,10.1.1.2,5001,4,36.0-37.0,917504,7340032
20150221185717,10.1.1.1,58042,10.1.1.2,5001,6,36.0-37.0,786432,6291456
20150221185717,10.1.1.1,58045,10.1.1.2,5001,9,36.0-37.0,917504,7340032
20150221185717,10.1.1.1,58047,10.1.1.2,5001,11,36.0-37.0,917504,7340032
20150221185717,10.1.1.1,58044,10.1.1.2,5001,8,36.0-37.0,786432,6291456
20150221185717,10.1.1.1,58041,10.1.1.2,5001,5,36.0-37.0,1048576,8388608
20150221185717,10.1.1.1,58043,10.1.1.2,5001,7,36.0-37.0,1048576,8388608
20150221185717,10.1.1.1,58046,10.1.1.2,5001,10,36.0-37.0,1048576,8388608
20150221185717,10.1.1.1,58039,10.1.1.2,5001,3,36.0-37.0,1048576,8388608
20150221185717,10.1.1.1,58048,10.1.1.2,5001,12,36.0-37.0,1048576,8388608
20150221185717,10.1.1.1,0,10.1.1.2,5001,-1,36.0-37.0,9568256,76546048
20150221185718,10.1.1.1,58044,10.1.1.2,5001,8,37.0-38.0,917504,7340032
20150221185718,10.1.1.1,58041,10.1.1.2,5001,5,37.0-38.0,917504,7340032
20150221185718,10.1.1.1,58043,10.1.1.2,5001,7,37.0-38.0,917504,7340032
20150221185718,10.1.1.1,58046,10.1.1.2,5001,10,37.0-38.0,917504,7340032
20150221185718,10.1.1.1,58048,10.1.1.2,5001,12,37.0-38.0,786432,6291456
20150221185718,10.1.1.1,58042,10.1.1.2,5001,6,37.0-38.0,1048576,8388608
20150221185718,10.1.1.1,58039,10.1.1.2,5001,3,37.0-38.0,917504,7340032
20150221185718,10.1.1.1,58040,10.1.1.2,5001,4,37.0-38.0,1048576,8388608
20150221185718,10.1.1.1,58045,10.1.1.2,5001,9,37.0-38.0,1048576,8388608
20150221185718,10.1.1.1,58047,10.1.1.2,5001,11,37.0-38.0,1048576,8388608
20150221185718,10.1.1.1,0,10.1.1.2,5001,-1,37.0-38.0,9568256,76546048
20150221185719,10.1.1.1,58048,10.1.1.2,5001,12,38.0-39.0,917504,7340032
20150221185719,10.1.1.1,58042,10.1.1.2,5001,6,38.0-39.0,786432,6291456
20150221185719,10.1.1.1,58039,10.1.1.2,5001,3,38.0-39.0,917504,7340032
20150221185719,10.1.1.1,58043,10.1.1.2,5001,7,38.0-39.0,917504,7340032
20150221185719,10.1.1.1,58040,10.1.1.2,5001,4,38.0-39.0,917504,7340032
20150221185719,10.1.1.1,58045,10.1.1.2,5001,9,38.0-39.0,917504,7340032
20150221185719,10.1.1.1,58047,10.1.1.2,5001,11,38.0-39.0,917504,7340032
20150221185719,10.1.1.1,58044,10.1.1.2,5001,8,38.0-39.0,1048576,8388608
20150221185719,10.1.1.1,58041,10.1.1.2,5001,5,38.0-39.0,1048576,8388608
20150221185719,10.1.1.1,58046,10.1.1.2,5001,10,38.0-39.0,1048576,8388608
20150221185719,10.1.1.1,0,10.1.1.2,5001,-1,38.0-39.0,9437184,75497472
20150221185720,10.1.1.1,58043,10.1.1.2,5001,7,39.0-40.0,786432,6291456
20150221185720,10.1.1.1,58040,10.1.1.2,5001,4,39.0-40.0,786432,6291456
20150221185720,10.1.1.1,58045,10.1.1.2,5001,9,39.0-40.0,786432,6291456
20150221185720,10.1.1.1,58047,10.1.1.2,5001,11,39.0-40.0,786432,6291456
20150221185720,10.1.1.1,58044,10.1.1.2,5001,8,39.0-40.0,917504,7340032
20150221185720,10.1.1.1,58041,10.1.1.2,5001,5,39.0-40.0,786432,6291456
20150221185720,10.1.1.1,58046,10.1.1.2,5001,10,39.0-40.0,786432,6291456
20150221185720,10.1.1.1,58048,10.1.1.2,5001,12,39.0-40.0,1048576,8388608
20150221185720,10.1.1.1,58042,10.1.1.2,5001,6,39.0-40.0,1048576,8388608
20150221185720,10.1.1.1,58039,10.1.1.2,5001,3,39.0-40.0,1048576,8388608
20150221185720,10.1.1.1,0,10.1.1.2,5001,-1,39.0-40.0,8781824,70254592
20150221185721,10.1.1.1,58045,10.1.1.2,5001,9,40.0-41.0,917504,7340032
20150221185721,10.1.1.1,58046,10.1.1.2,5001,10,40.0-41.0,917504,7340032
20150221185721,10.1.1.1,58048,10.1.1.2,5001,12,40.0-41.0,917504,7340032
20150221185721,10.1.1.1,58042,10.1.1.2,5001,6,40.0-41.0,917504,7340032
20150221185721,10.1.1.1,58039,10.1.1.2,5001,3,40.0-41.0,786432,6291456
20150221185721,10.1.1.1,58040,10.1.1.2,5001,4,40.0-41.0,1048576,8388608
20150221185721,10.1.1.1,58041,10.1.1.2,5001,5,40.0-41.0,917504,7340032
20150221185721,10.1.1.1,58043,10.1.1.2,5001,7,40.0-41.0,1048576,8388608
20150221185721,10.1.1.1,58047,10.1.1.2,5001,11,40.0-41.0,1048576,8388608
20150221185721,10.1.1.1,58044,10.1.1.2,5001,8,40.0-41.0,1048576,8388608
20150221185721,10.1.1.1,0,10.1.1.2,5001,-1,40.0-41.0,9568256,76546048
20150221185722,10.1.1.1,58042,10.1.1.2,5001,6,41.0-42.0,786432,6291456
20150221185722,10.1.1.1,58039,10.1.1.2,5001,3,41.0-42.0,917504,7340032
20150221185722,10.1.1.1,58044,10.1.1.2,5001,8,41.0-42.0,655360,5242880
20150221185722,10.1.1.1,58040,10.1.1.2,5001,4,41.0-42.0,917504,7340032
20150221185722,10.1.1.1,58041,10.1.1.2,5001,5,41.0-42.0,917504,7340032
20150221185722,10.1.1.1,58043,10.1.1.2,5001,7,41.0-42.0,917504,7340032
20150221185722,10.1.1.1,58047,10.1.1.2,5001,11,41.0-42.0,917504,7340032
20150221185722,10.1.1.1,58045,10.1.1.2,5001,9,41.0-42.0,1048576,8388608
20150221185722,10.1.1.1,58046,10.1.1.2,5001,10,41.0-42.0,1048576,8388608
20150221185722,10.1.1.1,58048,10.1.1.2,5001,12,41.0-42.0,1048576,8388608
20150221185722,10.1.1.1,0,10.1.1.2,5001,-1,41.0-42.0,9175040,73400320
20150221185723,10.1.1.1,58040,10.1.1.2,5001,4,42.0-43.0,786432,6291456
20150221185723,10.1.1.1,58041,10.1.1.2,5001,5,42.0-43.0,786432,6291456
20150221185723,10.1.1.1,58043,10.1.1.2,5001,7,42.0-43.0,786432,6291456
20150221185723,10.1.1.1,58047,10.1.1.2,5001,11,42.0-43.0,786432,6291456
20150221185723,10.1.1.1,58045,10.1.1.2,5001,9,42.0-43.0,786432,6291456
20150221185723,10.1.1.1,58046,10.1.1.2,5001,10,42.0-43.0,786432,6291456
20150221185723,10.1.1.1,58048,10.1.1.2,5001,12,42.0-43.0,786432,6291456
20150221185723,10.1.1.1,58042,10.1.1.2,5001,6,42.0-43.0,1048576,8388608
20150221185723,10.1.1.1,58039,10.1.1.2,5001,3,42.0-43.0,1048576,8388608
20150221185723,10.1.1.1,58044,10.1.1.2,5001,8,42.0-43.0,1048576,8388608
20150221185723,10.1.1.1,0,10.1.1.2,5001,-1,42.0-43.0,8650752,69206016
20150221185724,10.1.1.1,58043,10.1.1.2,5001,7,43.0-44.0,1048576,8388608
20150221185724,10.1.1.1,58045,10.1.1.2,5001,9,43.0-44.0,917504,7340032
20150221185724,10.1.1.1,58048,10.1.1.2,5001,12,43.0-44.0,917504,7340032
20150221185724,10.1.1.1,58040,10.1.1.2,5001,4,43.0-44.0,1179648,9437184
20150221185724,10.1.1.1,58042,10.1.1.2,5001,6,43.0-44.0,917504,7340032
20150221185724,10.1.1.1,58046,10.1.1.2,5001,10,43.0-44.0,1048576,8388608
20150221185724,10.1.1.1,58047,10.1.1.2,5001,11,43.0-44.0,1179648,9437184
20150221185724,10.1.1.1,58039,10.1.1.2,5001,3,43.0-44.0,786432,6291456
20150221185724,10.1.1.1,58044,10.1.1.2,5001,8,43.0-44.0,917504,7340032
20150221185724,10.1.1.1,58041,10.1.1.2,5001,5,43.0-44.0,1048576,8388608
20150221185724,10.1.1.1,0,10.1.1.2,5001,-1,43.0-44.0,9961472,79691776
20150221185725,10.1.1.1,58040,10.1.1.2,5001,4,44.0-45.0,786432,6291456
20150221185725,10.1.1.1,58042,10.1.1.2,5001,6,44.0-45.0,917504,7340032
20150221185725,10.1.1.1,58045,10.1.1.2,5001,9,44.0-45.0,917504,7340032
20150221185725,10.1.1.1,58046,10.1.1.2,5001,10,44.0-45.0,786432,6291456
20150221185725,10.1.1.1,58047,10.1.1.2,5001,11,44.0-45.0,786432,6291456
20150221185725,10.1.1.1,58039,10.1.1.2,5001,3,44.0-45.0,917504,7340032
20150221185725,10.1.1.1,58048,10.1.1.2,5001,12,44.0-45.0,917504,7340032
20150221185725,10.1.1.1,58041,10.1.1.2,5001,5,44.0-45.0,917504,7340032
20150221185725,10.1.1.1,58043,10.1.1.2,5001,7,44.0-45.0,1048576,8388608
20150221185725,10.1.1.1,58044,10.1.1.2,5001,8,44.0-45.0,917504,7340032
20150221185725,10.1.1.1,0,10.1.1.2,5001,-1,44.0-45.0,8912896,71303168
20150221185726,10.1.1.1,58041,10.1.1.2,5001,5,45.0-46.0,786432,6291456
20150221185726,10.1.1.1,58043,10.1.1.2,5001,7,45.0-46.0,786432,6291456
20150221185726,10.1.1.1,58044,10.1.1.2,5001,8,45.0-46.0,786432,6291456
20150221185726,10.1.1.1,58039,10.1.1.2,5001,3,45.0-46.0,917504,7340032
20150221185726,10.1.1.1,58042,10.1.1.2,5001,6,45.0-46.0,1048576,8388608
20150221185726,10.1.1.1,58045,10.1.1.2,5001,9,45.0-46.0,1048576,8388608
20150221185726,10.1.1.1,58046,10.1.1.2,5001,10,45.0-46.0,1048576,8388608
20150221185726,10.1.1.1,58047,10.1.1.2,5001,11,45.0-46.0,1048576,8388608
20150221185726,10.1.1.1,58048,10.1.1.2,5001,12,45.0-46.0,1048576,8388608
20150221185726,10.1.1.1,58040,10.1.1.2,5001,4,45.0-46.0,1048576,8388608
20150221185726,10.1.1.1,0,10.1.1.2,5001,-1,45.0-46.0,9568256,76546048
20150221185727,10.1.1.1,58045,10.1.1.2,5001,9,46.0-47.0,786432,6291456
20150221185727,10.1.1.1,58046,10.1.1.2,5001,10,46.0-47.0,786432,6291456
20150221185727,10.1.1.1,58047,10.1.1.2,5001,11,46.0-47.0,786432,6291456
20150221185727,10.1.1.1,58048,10.1.1.2,5001,12,46.0-47.0,786432,6291456
20150221185727,10.1.1.1,58041,10.1.1.2,5001,5,46.0-47.0,1048576,8388608
20150221185727,10.1.1.1,58043,10.1.1.2,5001,7,46.0-47.0,1048576,8388608
20150221185727,10.1.1.1,58044,10.1.1.2,5001,8,46.0-47.0,1048576,8388608
20150221185727,10.1.1.1,58039,10.1.1.2,5001,3,46.0-47.0,1048576,8388608
20150221185727,10.1.1.1,58040,10.1.1.2,5001,4,46.0-47.0,917504,7340032
20150221185727,10.1.1.1,58042,10.1.1.2,5001,6,46.0-47.0,1048576,8388608
20150221185727,10.1.1.1,0,10.1.1.2,5001,-1,46.0-47.0,9306112,74448896
20150221185728,10.1.1.1,58040,10.1.1.2,5001,4,47.0-48.0,786432,6291456
20150221185728,10.1.1.1,58042,10.1.1.2,5001,6,47.0-48.0,786432,6291456
20150221185728,10.1.1.1,58045,10.1.1.2,5001,9,47.0-48.0,1048576,8388608
20150221185728,10.1.1.1,58046,10.1.1.2,5001,10,47.0-48.0,1048576,8388608
20150221185728,10.1.1.1,58047,10.1.1.2,5001,11,47.0-48.0,1048576,8388608
20150221185728,10.1.1.1,58048,10.1.1.2,5001,12,47.0-48.0,1048576,8388608
20150221185728,10.1.1.1,58041,10.1.1.2,5001,5,47.0-48.0,1048576,8388608
20150221185728,10.1.1.1,58043,10.1.1.2,5001,7,47.0-48.0,1048576,8388608
20150221185728,10.1.1.1,58039,10.1.1.2,5001,3,47.0-48.0,1048576,8388608
20150221185728,10.1.1.1,58044,10.1.1.2,5001,8,47.0-48.0,1048576,8388608
20150221185728,10.1.1.1,0,10.1.1.2,5001,-1,47.0-48.0,9961472,79691776
20150221185729,10.1.1.1,58041,10.1.1.2,5001,5,48.0-49.0,786432,6291456
20150221185729,10.1.1.1,58043,10.1.1.2,5001,7,48.0-49.0,786432,6291456
20150221185729,10.1.1.1,58039,10.1.1.2,5001,3,48.0-49.0,786432,6291456
20150221185729,10.1.1.1,58044,10.1.1.2,5001,8,48.0-49.0,786432,6291456
20150221185729,10.1.1.1,58040,10.1.1.2,5001,4,48.0-49.0,1048576,8388608
20150221185729,10.1.1.1,58042,10.1.1.2,5001,6,48.0-49.0,1048576,8388608
20150221185729,10.1.1.1,58045,10.1.1.2,5001,9,48.0-49.0,1048576,8388608
20150221185729,10.1.1.1,58046,10.1.1.2,5001,10,48.0-49.0,1048576,8388608
20150221185729,10.1.1.1,58047,10.1.1.2,5001,11,48.0-49.0,917504,7340032
20150221185729,10.1.1.1,58048,10.1.1.2,5001,12,48.0-49.0,1048576,8388608
20150221185729,10.1.1.1,0,10.1.1.2,5001,-1,48.0-49.0,9306112,74448896
20150221185730,10.1.1.1,58040,10.1.1.2,5001,4,49.0-50.0,786432,6291456
20150221185730,10.1.1.1,58045,10.1.1.2,5001,9,49.0-50.0,786432,6291456
20150221185730,10.1.1.1,58046,10.1.1.2,5001,10,49.0-50.0,786432,6291456
20150221185730,10.1.1.1,58047,10.1.1.2,5001,11,49.0-50.0,786432,6291456
20150221185730,10.1.1.1,58048,10.1.1.2,5001,12,49.0-50.0,786432,6291456
20150221185730,10.1.1.1,58041,10.1.1.2,5001,5,49.0-50.0,1048576,8388608
20150221185730,10.1.1.1,58043,10.1.1.2,5001,7,49.0-50.0,1048576,8388608
20150221185730,10.1.1.1,58044,10.1.1.2,5001,8,49.0-50.0,1048576,8388608
20150221185730,10.1.1.1,58039,10.1.1.2,5001,3,49.0-50.0,1048576,8388608
20150221185730,10.1.1.1,58042,10.1.1.2,5001,6,49.0-50.0,786432,6291456
20150221185730,10.1.1.1,0,10.1.1.2,5001,-1,49.0-50.0,8912896,71303168
20150221185731,10.1.1.1,58041,10.1.1.2,5001,5,50.0-51.0,786432,6291456
20150221185731,10.1.1.1,58043,10.1.1.2,5001,7,50.0-51.0,655360,5242880
20150221185731,10.1.1.1,58039,10.1.1.2,5001,3,50.0-51.0,786432,6291456
20150221185731,10.1.1.1,58044,10.1.1.2,5001,8,50.0-51.0,786432,6291456
20150221185731,10.1.1.1,58042,10.1.1.2,5001,6,50.0-51.0,917504,7340032
20150221185731,10.1.1.1,58040,10.1.1.2,5001,4,50.0-51.0,1048576,8388608
20150221185731,10.1.1.1,58045,10.1.1.2,5001,9,50.0-51.0,1048576,8388608
20150221185731,10.1.1.1,58046,10.1.1.2,5001,10,50.0-51.0,917504,7340032
20150221185731,10.1.1.1,58047,10.1.1.2,5001,11,50.0-51.0,1048576,8388608
20150221185731,10.1.1.1,58048,10.1.1.2,5001,12,50.0-51.0,1048576,8388608
20150221185731,10.1.1.1,0,10.1.1.2,5001,-1,50.0-51.0,9043968,72351744
20150221185732,10.1.1.1,58040,10.1.1.2,5001,4,51.0-52.0,786432,6291456
20150221185732,10.1.1.1,58042,10.1.1.2,5001,6,51.0-52.0,786432,6291456
20150221185732,10.1.1.1,58045,10.1.1.2,5001,9,51.0-52.0,786432,6291456
20150221185732,10.1.1.1,58046,10.1.1.2,5001,10,51.0-52.0,786432,6291456
20150221185732,10.1.1.1,58047,10.1.1.2,5001,11,51.0-52.0,786432,6291456
20150221185732,10.1.1.1,58048,10.1.1.2,5001,12,51.0-52.0,786432,6291456
20150221185732,10.1.1.1,58041,10.1.1.2,5001,5,51.0-52.0,1048576,8388608
20150221185732,10.1.1.1,58043,10.1.1.2,5001,7,51.0-52.0,1048576,8388608
20150221185732,10.1.1.1,58044,10.1.1.2,5001,8,51.0-52.0,1048576,8388608
20150221185732,10.1.1.1,58039,10.1.1.2,5001,3,51.0-52.0,1048576,8388608
20150221185732,10.1.1.1,0,10.1.1.2,5001,-1,51.0-52.0,8912896,71303168
20150221185733,10.1.1.1,58041,10.1.1.2,5001,5,52.0-53.0,786432,6291456
20150221185733,10.1.1.1,58043,10.1.1.2,5001,7,52.0-53.0,786432,6291456
20150221185733,10.1.1.1,58044,10.1.1.2,5001,8,52.0-53.0,786432,6291456
20150221185733,10.1.1.1,58039,10.1.1.2,5001,3,52.0-53.0,786432,6291456
20150221185733,10.1.1.1,58040,10.1.1.2,5001,4,52.0-53.0,1048576,8388608
20150221185733,10.1.1.1,58042,10.1.1.2,5001,6,52.0-53.0,1048576,8388608
20150221185733,10.1.1.1,58045,10.1.1.2,5001,9,52.0-53.0,1048576,8388608
20150221185733,10.1.1.1,58046,10.1.1.2,5001,10,52.0-53.0,1048576,8388608
20150221185733,10.1.1.1,58047,10.1.1.2,5001,11,52.0-53.0,1048576,8388608
20150221185733,10.1.1.1,58048,10.1.1.2,5001,12,52.0-53.0,1048576,8388608
20150221185733,10.1.1.1,0,10.1.1.2,5001,-1,52.0-53.0,9437184,75497472
20150221185734,10.1.1.1,58040,10.1.1.2,5001,4,53.0-54.0,786432,6291456
20150221185734,10.1.1.1,58042,10.1.1.2,5001,6,53.0-54.0,786432,6291456
20150221185734,10.1.1.1,58045,10.1.1.2,5001,9,53.0-54.0,786432,6291456
20150221185734,10.1.1.1,58046,10.1.1.2,5001,10,53.0-54.0,786432,6291456
20150221185734,10.1.1.1,58047,10.1.1.2,5001,11,53.0-54.0,786432,6291456
20150221185734,10.1.1.1,58048,10.1.1.2,5001,12,53.0-54.0,786432,6291456
20150221185734,10.1.1.1,58041,10.1.1.2,5001,5,53.0-54.0,1048576,8388608
20150221185734,10.1.1.1,58043,10.1.1.2,5001,7,53.0-54.0,1048576,8388608
20150221185734,10.1.1.1,58044,10.1.1.2,5001,8,53.0-54.0,1048576,8388608
20150221185734,10.1.1.1,58039,10.1.1.2,5001,3,53.0-54.0,1048576,8388608
20150221185734,10.1.1.1,0,10.1.1.2,5001,-1,53.0-54.0,8912896,71303168
20150221185735,10.1.1.1,58041,10.1.1.2,5001,5,54.0-55.0,786432,6291456
20150221185735,10.1.1.1,58043,10.1.1.2,5001,7,54.0-55.0,786432,6291456
20150221185735,10.1.1.1,58044,10.1.1.2,5001,8,54.0-55.0,786432,6291456
20150221185735,10.1.1.1,58039,10.1.1.2,5001,3,54.0-55.0,786432,6291456
20150221185735,10.1.1.1,58040,10.1.1.2,5001,4,54.0-55.0,1048576,8388608
20150221185735,10.1.1.1,58042,10.1.1.2,5001,6,54.0-55.0,1048576,8388608
20150221185735,10.1.1.1,58045,10.1.1.2,5001,9,54.0-55.0,1048576,8388608
20150221185735,10.1.1.1,58046,10.1.1.2,5001,10,54.0-55.0,1048576,8388608
20150221185735,10.1.1.1,58047,10.1.1.2,5001,11,54.0-55.0,1048576,8388608
20150221185735,10.1.1.1,58048,10.1.1.2,5001,12,54.0-55.0,1048576,8388608
20150221185735,10.1.1.1,0,10.1.1.2,5001,-1,54.0-55.0,9437184,75497472
20150221185736,10.1.1.1,58040,10.1.1.2,5001,4,55.0-56.0,786432,6291456
20150221185736,10.1.1.1,58042,10.1.1.2,5001,6,55.0-56.0,786432,6291456
20150221185736,10.1.1.1,58045,10.1.1.2,5001,9,55.0-56.0,786432,6291456
20150221185736,10.1.1.1,58046,10.1.1.2,5001,10,55.0-56.0,786432,6291456
20150221185736,10.1.1.1,58047,10.1.1.2,5001,11,55.0-56.0,786432,6291456
20150221185736,10.1.1.1,58048,10.1.1.2,5001,12,55.0-56.0,786432,6291456
20150221185736,10.1.1.1,58041,10.1.1.2,5001,5,55.0-56.0,1048576,8388608
20150221185736,10.1.1.1,58043,10.1.1.2,5001,7,55.0-56.0,1048576,8388608
20150221185736,10.1.1.1,58044,10.1.1.2,5001,8,55.0-56.0,1048576,8388608
20150221185736,10.1.1.1,58039,10.1.1.2,5001,3,55.0-56.0,1048576,8388608
20150221185736,10.1.1.1,0,10.1.1.2,5001,-1,55.0-56.0,8912896,71303168
20150221185737,10.1.1.1,58042,10.1.1.2,5001,6,56.0-57.0,1048576,8388608
20150221185737,10.1.1.1,58040,10.1.1.2,5001,4,56.0-57.0,1048576,8388608
20150221185737,10.1.1.1,58045,10.1.1.2,5001,9,56.0-57.0,1048576,8388608
20150221185737,10.1.1.1,58046,10.1.1.2,5001,10,56.0-57.0,1048576,8388608
20150221185737,10.1.1.1,58047,10.1.1.2,5001,11,56.0-57.0,1048576,8388608
20150221185737,10.1.1.1,58048,10.1.1.2,5001,12,56.0-57.0,1048576,8388608
20150221185737,10.1.1.1,58041,10.1.1.2,5001,5,56.0-57.0,1048576,8388608
20150221185737,10.1.1.1,58043,10.1.1.2,5001,7,56.0-57.0,1048576,8388608
20150221185737,10.1.1.1,58044,10.1.1.2,5001,8,56.0-57.0,1048576,8388608
20150221185737,10.1.1.1,58039,10.1.1.2,5001,3,56.0-57.0,1048576,8388608
20150221185737,10.1.1.1,0,10.1.1.2,5001,-1,56.0-57.0,10485760,83886080
20150221185738,10.1.1.1,58041,10.1.1.2,5001,5,57.0-58.0,786432,6291456
20150221185738,10.1.1.1,58043,10.1.1.2,5001,7,57.0-58.0,786432,6291456
20150221185738,10.1.1.1,58044,10.1.1.2,5001,8,57.0-58.0,786432,6291456
20150221185738,10.1.1.1,58039,10.1.1.2,5001,3,57.0-58.0,786432,6291456
20150221185738,10.1.1.1,58040,10.1.1.2,5001,4,57.0-58.0,1048576,8388608
20150221185738,10.1.1.1,58042,10.1.1.2,5001,6,57.0-58.0,1048576,8388608
20150221185738,10.1.1.1,58045,10.1.1.2,5001,9,57.0-58.0,1048576,8388608
20150221185738,10.1.1.1,58046,10.1.1.2,5001,10,57.0-58.0,1048576,8388608
20150221185738,10.1.1.1,58047,10.1.1.2,5001,11,57.0-58.0,1048576,8388608
20150221185738,10.1.1.1,58048,10.1.1.2,5001,12,57.0-58.0,917504,7340032
20150221185738,10.1.1.1,0,10.1.1.2,5001,-1,57.0-58.0,9306112,74448896
20150221185739,10.1.1.1,58042,10.1.1.2,5001,6,58.0-59.0,786432,6291456
20150221185739,10.1.1.1,58040,10.1.1.2,5001,4,58.0-59.0,786432,6291456
20150221185739,10.1.1.1,58045,10.1.1.2,5001,9,58.0-59.0,786432,6291456
20150221185739,10.1.1.1,58046,10.1.1.2,5001,10,58.0-59.0,786432,6291456
20150221185739,10.1.1.1,58047,10.1.1.2,5001,11,58.0-59.0,786432,6291456
20150221185739,10.1.1.1,58048,10.1.1.2,5001,12,58.0-59.0,786432,6291456
20150221185739,10.1.1.1,58041,10.1.1.2,5001,5,58.0-59.0,1048576,8388608
20150221185739,10.1.1.1,58043,10.1.1.2,5001,7,58.0-59.0,1048576,8388608
20150221185739,10.1.1.1,58044,10.1.1.2,5001,8,58.0-59.0,1048576,8388608
20150221185739,10.1.1.1,58039,10.1.1.2,5001,3,58.0-59.0,1048576,8388608
20150221185739,10.1.1.1,0,10.1.1.2,5001,-1,58.0-59.0,8912896,71303168
20150221185740,10.1.1.1,58041,10.1.1.2,5001,5,59.0-60.0,786432,6291456
20150221185740,10.1.1.1,58041,10.1.1.2,5001,5,0.0-60.1,53215232,7086165
20150221185740,10.1.1.1,58043,10.1.1.2,5001,7,59.0-60.0,786432,6291456
20150221185740,10.1.1.1,58043,10.1.1.2,5001,7,0.0-60.1,53739520,7155274
20150221185740,10.1.1.1,58044,10.1.1.2,5001,8,59.0-60.0,786432,6291456
20150221185740,10.1.1.1,58044,10.1.1.2,5001,8,0.0-60.1,53477376,7119094
20150221185740,10.1.1.1,58039,10.1.1.2,5001,3,59.0-60.0,786432,6291456
20150221185740,10.1.1.1,58039,10.1.1.2,5001,3,0.0-60.1,53084160,7067281
20150221185740,10.1.1.1,58040,10.1.1.2,5001,4,59.0-60.0,1048576,8388608
20150221185740,10.1.1.1,58040,10.1.1.2,5001,4,0.0-60.2,54001664,7173128
20150221185740,10.1.1.1,58042,10.1.1.2,5001,6,59.0-60.0,1048576,8388608
20150221185740,10.1.1.1,58042,10.1.1.2,5001,6,0.0-60.2,53477376,7103680
20150221185740,10.1.1.1,58045,10.1.1.2,5001,9,59.0-60.0,1048576,8388608
20150221185740,10.1.1.1,58045,10.1.1.2,5001,9,0.0-60.2,53739520,7138157
20150221185740,10.1.1.1,58046,10.1.1.2,5001,10,59.0-60.0,1179648,9437184
20150221185740,10.1.1.1,58046,10.1.1.2,5001,10,0.0-60.2,54001664,7172179
20150221185740,10.1.1.1,58047,10.1.1.2,5001,11,59.0-60.0,1048576,8388608
20150221185740,10.1.1.1,58047,10.1.1.2,5001,11,0.0-60.2,54001664,7172683
20150221185740,10.1.1.1,58048,10.1.1.2,5001,12,59.0-60.0,1048576,8388608
20150221185740,10.1.1.1,0,10.1.1.2,5001,-1,59.0-60.0,9568256,76546048
20150221185740,10.1.1.1,58048,10.1.1.2,5001,12,0.0-60.2,53608448,7120138
20150221185740,10.1.1.1,0,10.1.1.2,5001,-1,0.0-60.2,536346624,71234365
